{
    "Special Pizza_1": {
        "__restrictions__": "ontology.main_topping_of.exactly(1, owl.Thing)",
        "Price": {
            "path": "PizzaExample/Menus/RandomMenu_1.txt",
            "type": "regex",
            "pattern": "Special First choice price:\\s(.*)\\n",
            "postprocessor": {
                    "type": "",
                    "args": ""
                }
        },
        "Has_main_topping": {
            "path": "PizzaExample/Menus/RandomMenu_1.txt",
            "type": "regex",
            "pattern": "Special First choice:\\s(.*)\\n",
            "postprocessor": {
                    "type": "",
                    "args": ""
                }
        }
    },
    "Special Pizza_2": {
        "__restrictions__": "ontology.main_topping_of.exactly(1, owl.Thing)",
        "Price": {
            "path": "PizzaExample/Menus/RandomMenu_1.txt",
            "type": "regex",
            "pattern": "Special Second choice price:\\s(.*)\\n",
            "postprocessor": {
                    "type": "",
                    "args": ""
                }
        },
        "Has_main_topping": {
            "path": "PizzaExample/Menus/RandomMenu_1.txt",
            "type": "regex",
            "pattern": "Special Second choice:\\s(.*)\\n",
            "postprocessor": {
                    "type": "",
                    "args": ""
                }
        }
    },
    "White Pizza": {
        "__restrictions__": "ontology.main_topping_of.exactly(1, owl.Thing)",
        "Price": {
            "path": "PizzaExample/Menus/RandomMenu_1.txt",
            "type": "regex",
            "pattern": "White First choice price:\\s(.*)\\n",
            "postprocessor": {
                    "type": "",
                    "args": ""
                }
        },
        "Has_main_topping": {
            "path": "PizzaExample/Menus/RandomMenu_1.txt",
            "type": "regex",
            "pattern": "White First choice:\\s(.*)\\n",
            "postprocessor": {
                    "type": "",
                    "args": ""
                }
        }
    }
}
