{
    "Special Pizza": {
        "__count__": 2,
        "__is_subclass_of__": ["Pizza"],
        "__restrictions__": ["ontology.main_topping_of.exactly(1, owl.Thing)"],
        "Price": [1,1],
        "Has_main_topping": [1,1]
    },
    "White Pizza": {
        "__count__": 1,
        "__is_subclass_of__": ["Pizza"],
        "__restrictions__": ["ontology.main_topping_of.exactly(1, owl.Thing)"],
        "Price": [1],
        "Has_main_topping": [1]
    }
}
