{
  "Pizza": {
    "price": {
      "path": "CiCd/pizza.h5",
      "type": "h5reader",
      "pattern": "A/Money/Currency",
      "postprocessor": {
        "type": "",
        "args": ""
      }
    }
  },
  "Topping": {
    "main_topping_of": {
      "path": "doesn't matter",
      "type": "os",
      "pattern": "echo 'Quattro Formaggi'",
      "postprocessor": {
        "type": "",
        "args": ""
      }
    },
    "topping_of_1": {
      "path": "doesn't matter",
      "type": "string",
      "pattern": "Margarita",
      "postprocessor": {
        "type": "",
        "args": ""
      }
    },
    "topping_of_2": {
      "path": "CiCd/pizza_data.log",
      "type": "regex",
      "pattern": ".*\\n(.*)\\n",
      "postprocessor": {
        "type": "",
        "args": ""
      }
    }
  }
}

